lab2_works/sim/tests/fwd_idrt_mem/streamwave.vcd
$date
	Fri Feb 27 03:17:39 2015
$end
$version
	Icarus Verilog
$end
$timescale
	1ps
$end
$scope module userlogic_test $end
$var wire 32 ! data_out [31:0] $end
$var wire 15 " input_buffer_addr [14:0] $end
$var wire 15 # output_buffer_addr [14:0] $end
$var wire 32 $ ul_instr [31:0] $end
$var wire 32 % ul_instr_addr [31:0] $end
$var wire 32 & ul_read_addr [31:0] $end
$var wire 32 ' ul_read_data [31:0] $end
$var wire 32 ( ul_status [31:0] $end
$var wire 32 ) ul_test [31:0] $end
$var wire 32 * ul_write_addr [31:0] $end
$var wire 32 + ul_write_data [31:0] $end
$var wire 16 , ul_write_data_hi [15:0] $end
$var wire 16 - ul_write_data_lo [15:0] $end
$var wire 2 . ul_write_en_hi [1:0] $end
$var wire 2 / ul_write_en_lo [1:0] $end
$var reg 1 0 clk $end
$var reg 32 1 cycle_count [32:1] $end
$var integer 32 2 dump_vars [31:0] $end
$var reg 8192 3 dump_vars_filename [8192:1] $end
$var integer 32 4 i [31:0] $end
$var reg 10 5 image_n_columns [9:0] $end
$var reg 10 6 image_n_rows [9:0] $end
$var reg 8192 7 input_buffer_filename [8192:1] $end
$var reg 8192 8 instr_mem_filename [8192:1] $end
$var reg 32 9 num_cycles [32:1] $end
$var reg 33 : out_end_addr [32:0] $end
$var reg 33 ; out_start_addr [32:0] $end
$var integer 32 < outfile [31:0] $end
$var reg 8192 = output_buffer_filename [8192:1] $end
$var reg 15 > read_addr [14:0] $end
$var integer 32 ? read_input_buffer [31:0] $end
$var integer 32 @ read_instr_mem [31:0] $end
$var integer 32 A result [31:0] $end
$var reg 1 B rst_n $end
$var reg 8192 C test_result_filename [8192:1] $end
$var reg 32 D ul_command [31:0] $end
$var integer 32 E write_output_buffer [31:0] $end
$var integer 32 F write_test_result [31:0] $end
$scope module instr_mem $end
$var wire 14 G addr [13:0] $end
$var wire 1 H clk $end
$var wire 32 I din [31:0] $end
$var wire 1 J we $end
$var reg 32 K dout [31:0] $end
$upscope $end
$scope module input_buffer $end
$var wire 15 L addr [14:0] $end
$var wire 1 H clk $end
$var wire 32 M din [31:0] $end
$var wire 1 N we $end
$var reg 32 O dout [31:0] $end
$upscope $end
$scope module output_buffer $end
$var wire 15 P addr [14:0] $end
$var wire 1 H clk $end
$var wire 32 Q din [31:0] $end
$var wire 4 R we [3:0] $end
$var reg 32 S dout [31:0] $end
$scope begin column[0] $end
$upscope $end
$scope begin column[1] $end
$upscope $end
$scope begin column[2] $end
$upscope $end
$scope begin column[3] $end
$upscope $end
$upscope $end
$scope module ul $end
$var wire 1 T addr_cmd $end
$var wire 1 U addr_iobuf $end
$var wire 1 V addr_local $end
$var wire 1 W addr_status $end
$var wire 1 X addr_test $end
$var wire 1 H clk $end
$var wire 32 Y command [31:0] $end
$var wire 32 Z instr [31:0] $end
$var wire 32 [ instr_addr [31:0] $end
$var wire 32 \ mips_addr [31:0] $end
$var wire 32 ] mips_local_read_data [31:0] $end
$var wire 32 ^ mips_pc [31:0] $end
$var wire 32 _ mips_read_data [31:0] $end
$var wire 1 ` mips_read_en $end
$var wire 4 a mips_write_en [3:0] $end
$var wire 32 b read_addr_hi [31:0] $end
$var wire 32 c read_addr_lo [31:0] $end
$var wire 32 d read_data [31:0] $end
$var wire 16 e read_data_hi [15:0] $end
$var wire 16 f read_data_lo [15:0] $end
$var wire 1 g rst_n $end
$var wire 32 h status [31:0] $end
$var wire 32 i test [31:0] $end
$var wire 32 j write_addr_hi [31:0] $end
$var wire 32 k write_addr_lo [31:0] $end
$var wire 32 l write_data [31:0] $end
$var wire 16 m write_data_hi [15:0] $end
$var wire 16 n write_data_lo [15:0] $end
$var wire 2 o write_en_hi [1:0] $end
$var wire 2 p write_en_lo [1:0] $end
$var reg 32 q cmd_d [31:0] $end
$var reg 1 r read_cmd_d $end
$var reg 1 s read_iobuf_d $end
$var reg 32 t status_reg [31:0] $end
$var reg 32 u test_reg [31:0] $end
$scope module cpu $end
$var wire 32 v alu_op_x_ex [31:0] $end
$var wire 32 w alu_op_x_id [31:0] $end
$var wire 32 x alu_op_y_ex [31:0] $end
$var wire 32 y alu_op_y_id [31:0] $end
$var wire 1 z alu_op_y_zero_ex $end
$var wire 4 { alu_opcode_ex [3:0] $end
$var wire 4 | alu_opcode_id [3:0] $end
$var wire 1 } alu_overflow $end
$var wire 32 ~ alu_result_ex [31:0] $end
$var wire 32 !" alu_result_mem [31:0] $end
$var wire 32 "" branch_imm_id [31:0] $end
$var wire 1 H clk $end
$var wire 1 #" en $end
$var wire 1 $" en_if $end
$var wire 32 %" instr [31:0] $end
$var wire 32 &" instr_id [31:0] $end
$var wire 30 '" instr_number_id [29:0] $end
$var wire 32 (" instr_sav [31:0] $end
$var wire 1 )" isJR $end
$var wire 32 *" jr_pc_id [31:0] $end
$var wire 1 +" jump_branch_id $end
$var wire 1 ," jump_reg_id $end
$var wire 1 -" jump_target_id $end
$var wire 32 ." mem_addr [31:0] $end
$var wire 1 /" mem_byte_ex $end
$var wire 1 0" mem_byte_id $end
$var wire 1 1" mem_byte_mem $end
$var wire 32 2" mem_out [31:0] $end
$var wire 32 3" mem_read_data [31:0] $end
$var wire 32 4" mem_read_data_byte_extend [31:0] $end
$var wire 8 5" mem_read_data_byte_select [7:0] $end
$var wire 1 ` mem_read_en $end
$var wire 1 6" mem_read_ex $end
$var wire 1 7" mem_read_id $end
$var wire 1 8" mem_read_mem $end
$var wire 1 9" mem_signextend_ex $end
$var wire 1 :" mem_signextend_id $end
$var wire 1 ;" mem_signextend_mem $end
$var wire 1 <" mem_we_ex $end
$var wire 1 =" mem_we_id $end
$var wire 32 >" mem_write_data [31:0] $end
$var wire 32 ?" mem_write_data_ex [31:0] $end
$var wire 32 @" mem_write_data_id [31:0] $end
$var wire 4 A" mem_write_en [3:0] $end
$var wire 1 B" movn_ex $end
$var wire 1 C" movn_id $end
$var wire 1 D" movz_ex $end
$var wire 1 E" movz_id $end
$var wire 32 F" pc [31:0] $end
$var wire 32 G" pc_id [31:0] $end
$var wire 32 H" pc_if [31:0] $end
$var wire 1 I" reg_we_cond_ex $end
$var wire 1 J" reg_we_ex $end
$var wire 1 K" reg_we_id $end
$var wire 1 L" reg_we_mem $end
$var wire 1 M" reg_we_wb $end
$var wire 5 N" reg_write_addr_ex [4:0] $end
$var wire 5 O" reg_write_addr_id [4:0] $end
$var wire 5 P" reg_write_addr_mem [4:0] $end
$var wire 5 Q" reg_write_addr_wb [4:0] $end
$var wire 32 R" reg_write_data_mem [31:0] $end
$var wire 32 S" reg_write_data_wb [31:0] $end
$var wire 5 T" rs_addr_id [4:0] $end
$var wire 32 U" rs_data_id [31:0] $end
$var wire 1 V" rst $end
$var wire 1 W" rst_id $end
$var wire 5 X" rt_addr_id [4:0] $end
$var wire 32 Y" rt_data_id [31:0] $end
$var wire 1 Z" stall $end
$var wire 1 [" stall_r $end
$scope module if_stage $end
$var wire 32 \" branch_addr [31:0] $end
$var wire 32 ]" branch_imm [31:0] $end
$var wire 1 H clk $end
$var wire 1 $" en $end
$var wire 32 ^" j_addr [31:0] $end
$var wire 1 +" jump_branch $end
$var wire 32 _" jump_imm [31:0] $end
$var wire 1 )" jump_reg $end
$var wire 1 -" jump_target $end
$var wire 32 `" pc [31:0] $end
$var wire 32 a" pc_id [31:0] $end
$var wire 32 b" pc_id_p4 [31:0] $end
$var wire 32 c" pc_next [31:0] $end
$var wire 1 V" rst $end
$scope module pc_reg $end
$var wire 1 H clk $end
$var wire 32 d" d [31:0] $end
$var wire 1 $" en $end
$var wire 1 V" r $end
$var reg 32 e" q [31:0] $end
$upscope $end
$upscope $end
$scope module pc_if2id $end
$var wire 1 H clk $end
$var wire 32 f" d [31:0] $end
$var wire 1 $" en $end
$var wire 1 V" r $end
$var reg 32 g" q [31:0] $end
$upscope $end
$scope module instr_sav_dff $end
$var wire 1 H clk $end
$var wire 32 h" d [31:0] $end
$var wire 1 #" en $end
$var wire 1 V" r $end
$var reg 32 i" q [31:0] $end
$upscope $end
$scope module stall_f_dff $end
$var wire 1 H clk $end
$var wire 1 Z" d $end
$var wire 1 #" en $end
$var wire 1 V" r $end
$var reg 1 j" q $end
$upscope $end
$scope module d_stage $end
$var wire 32 k" alu_op_x [31:0] $end
$var wire 32 l" alu_op_y [31:0] $end
$var wire 32 m" alu_result_ex [31:0] $end
$var wire 32 n" branch_imm [31:0] $end
$var wire 1 o" forward_rs_mem $end
$var wire 6 p" funct [5:0] $end
$var wire 32 q" imm [31:0] $end
$var wire 32 r" imm_no_extend [31:0] $end
$var wire 32 s" imm_sign_extend [31:0] $end
$var wire 32 t" imm_upper [31:0] $end
$var wire 16 u" immediate [15:0] $end
$var wire 32 v" instr [31:0] $end
$var wire 1 w" isALUImm $end
$var wire 1 x" isBEQ $end
$var wire 1 y" isBGEZAL $end
$var wire 1 z" isBGEZNL $end
$var wire 1 {" isBGTZ $end
$var wire 1 |" isBLEZ $end
$var wire 1 }" isBLTZAL $end
$var wire 1 ~" isBLTZNL $end
$var wire 1 !# isBNE $end
$var wire 1 "# isBranchLink $end
$var wire 1 ## isEqual $end
$var wire 1 $# isJ $end
$var wire 1 )" isJR $end
$var wire 1 %# isLUI $end
$var wire 1 &# isSLL $end
$var wire 1 '# isSLLV $end
$var wire 1 (# isSRA $end
$var wire 1 )# isSRAV $end
$var wire 1 *# isSRL $end
$var wire 1 +# isSRLV $end
$var wire 1 ,# isShift $end
$var wire 1 -# isShiftImm $end
$var wire 32 .# jr_pc [31:0] $end
$var wire 1 +" jump_branch $end
$var wire 1 ," jump_reg $end
$var wire 1 -" jump_target $end
$var wire 1 0" mem_byte $end
$var wire 1 7" mem_read $end
$var wire 1 6" mem_read_ex $end
$var wire 1 :" mem_signextend $end
$var wire 1 =" mem_we $end
$var wire 32 /# mem_write_data [31:0] $end
$var wire 1 C" movn $end
$var wire 1 E" movz $end
$var wire 6 0# op [5:0] $end
$var wire 32 1# pc [31:0] $end
$var wire 5 2# rd_addr [4:0] $end
$var wire 1 3# read_from_rs $end
$var wire 1 4# read_from_rt $end
$var wire 1 K" reg_we $end
$var wire 1 J" reg_we_ex $end
$var wire 1 L" reg_we_mem $end
$var wire 5 5# reg_write_addr [4:0] $end
$var wire 5 6# reg_write_addr_ex [4:0] $end
$var wire 5 7# reg_write_addr_mem [4:0] $end
$var wire 32 8# reg_write_data_mem [31:0] $end
$var wire 5 9# rs_addr [4:0] $end
$var wire 32 :# rs_data [31:0] $end
$var wire 32 ;# rs_data_in [31:0] $end
$var wire 1 <# rs_mem_dependency $end
$var wire 5 =# rt_addr [4:0] $end
$var wire 32 ># rt_data [31:0] $end
$var wire 32 ?# rt_data_in [31:0] $end
$var wire 5 @# shamt [4:0] $end
$var wire 32 A# shift_amount [31:0] $end
$var wire 1 Z" stall $end
$var wire 1 B# use_imm $end
$var reg 4 C# alu_opcode [3:0] $end
$upscope $end
$scope module alu_op_x_id2ex $end
$var wire 1 V" ar $end
$var wire 1 H clk $end
$var wire 32 D# d [31:0] $end
$var wire 1 #" en $end
$var wire 1 W" r $end
$var reg 32 E# q [31:0] $end
$upscope $end
$scope module alu_op_y_id2ex $end
$var wire 1 V" ar $end
$var wire 1 H clk $end
$var wire 32 F# d [31:0] $end
$var wire 1 #" en $end
$var wire 1 W" r $end
$var reg 32 G# q [31:0] $end
$upscope $end
$scope module alu_opcode_id2ex $end
$var wire 1 V" ar $end
$var wire 1 H clk $end
$var wire 4 H# d [3:0] $end
$var wire 1 #" en $end
$var wire 1 W" r $end
$var reg 4 I# q [3:0] $end
$upscope $end
$scope module movn $end
$var wire 1 V" ar $end
$var wire 1 H clk $end
$var wire 1 C" d $end
$var wire 1 #" en $end
$var wire 1 W" r $end
$var reg 1 J# q $end
$upscope $end
$scope module movz $end
$var wire 1 V" ar $end
$var wire 1 H clk $end
$var wire 1 E" d $end
$var wire 1 #" en $end
$var wire 1 W" r $end
$var reg 1 K# q $end
$upscope $end
$scope module mem_write_data_id2ex $end
$var wire 1 V" ar $end
$var wire 1 H clk $end
$var wire 32 L# d [31:0] $end
$var wire 1 #" en $end
$var wire 1 W" r $end
$var reg 32 M# q [31:0] $end
$upscope $end
$scope module mem_we_id2ex $end
$var wire 1 V" ar $end
$var wire 1 H clk $end
$var wire 1 =" d $end
$var wire 1 #" en $end
$var wire 1 W" r $end
$var reg 1 N# q $end
$upscope $end
$scope module mem_read_id2ex $end
$var wire 1 V" ar $end
$var wire 1 H clk $end
$var wire 1 O# d $end
$var wire 1 #" en $end
$var wire 1 W" r $end
$var reg 1 P# q $end
$upscope $end
$scope module mem_byte_id2ex $end
$var wire 1 V" ar $end
$var wire 1 H clk $end
$var wire 1 0" d $end
$var wire 1 #" en $end
$var wire 1 W" r $end
$var reg 1 Q# q $end
$upscope $end
$scope module mem_signextend_id2ex $end
$var wire 1 V" ar $end
$var wire 1 H clk $end
$var wire 1 :" d $end
$var wire 1 #" en $end
$var wire 1 W" r $end
$var reg 1 R# q $end
$upscope $end
$scope module mem_mem_read_id2ex $end
$var wire 1 V" ar $end
$var wire 1 H clk $end
$var wire 1 7" d $end
$var wire 1 #" en $end
$var wire 1 W" r $end
$var reg 1 S# q $end
$upscope $end
$scope module reg_write_addr_id2ex $end
$var wire 1 V" ar $end
$var wire 1 H clk $end
$var wire 5 T# d [4:0] $end
$var wire 1 #" en $end
$var wire 1 W" r $end
$var reg 5 U# q [4:0] $end
$upscope $end
$scope module reg_we_id2ex $end
$var wire 1 V" ar $end
$var wire 1 H clk $end
$var wire 1 K" d $end
$var wire 1 #" en $end
$var wire 1 W" r $end
$var reg 1 V# q $end
$upscope $end
$scope module x_stage $end
$var wire 1 W# add_check $end
$var wire 1 X# add_neg_over $end
$var wire 1 Y# add_pos_over $end
$var wire 1 Z# alu_neg $end
$var wire 32 [# alu_op_x [31:0] $end
$var wire 32 \# alu_op_x_signed [31:0] $end
$var wire 32 ]# alu_op_y [31:0] $end
$var wire 32 ^# alu_op_y_signed [31:0] $end
$var wire 1 z alu_op_y_zero $end
$var wire 4 _# alu_opcode [3:0] $end
$var wire 1 } alu_overflow $end
$var wire 1 `# sub_check $end
$var wire 1 a# sub_neg_over $end
$var wire 1 b# sub_pos_over $end
$var wire 1 c# x_neg $end
$var wire 1 d# y_neg $end
$var reg 32 e# alu_op_y_reg_signed [31:0] $end
$var reg 32 f# alu_result [31:0] $end
$upscope $end
$scope module alu_result_ex2mem $end
$var wire 1 H clk $end
$var wire 32 g# d [31:0] $end
$var wire 1 #" en $end
$var wire 1 V" r $end
$var reg 32 h# q [31:0] $end
$upscope $end
$scope module mem_read_ex2mem $end
$var wire 1 H clk $end
$var wire 1 i# d $end
$var wire 1 #" en $end
$var wire 1 V" r $end
$var reg 1 j# q $end
$upscope $end
$scope module mem_byte_ex2mem $end
$var wire 1 H clk $end
$var wire 1 /" d $end
$var wire 1 #" en $end
$var wire 1 V" r $end
$var reg 1 k# q $end
$upscope $end
$scope module mem_signextend_ex2mem $end
$var wire 1 H clk $end
$var wire 1 9" d $end
$var wire 1 #" en $end
$var wire 1 V" r $end
$var reg 1 l# q $end
$upscope $end
$scope module mem_mem_read_ex2mem $end
$var wire 1 V" ar $end
$var wire 1 H clk $end
$var wire 1 6" d $end
$var wire 1 #" en $end
$var wire 1 W" r $end
$var reg 1 m# q $end
$upscope $end
$scope module reg_write_addr_ex2mem $end
$var wire 1 H clk $end
$var wire 5 n# d [4:0] $end
$var wire 1 #" en $end
$var wire 1 V" r $end
$var reg 5 o# q [4:0] $end
$upscope $end
$scope module reg_we_ex2mem $end
$var wire 1 H clk $end
$var wire 1 J" d $end
$var wire 1 #" en $end
$var wire 1 V" r $end
$var reg 1 p# q $end
$upscope $end
$scope module reg_write_data_mem2wb $end
$var wire 1 H clk $end
$var wire 32 q# d [31:0] $end
$var wire 1 #" en $end
$var wire 1 V" r $end
$var reg 32 r# q [31:0] $end
$upscope $end
$scope module reg_write_addr_mem2wb $end
$var wire 1 H clk $end
$var wire 5 s# d [4:0] $end
$var wire 1 #" en $end
$var wire 1 V" r $end
$var reg 5 t# q [4:0] $end
$upscope $end
$scope module reg_we_mem2wb $end
$var wire 1 H clk $end
$var wire 1 L" d $end
$var wire 1 #" en $end
$var wire 1 V" r $end
$var reg 1 u# q $end
$upscope $end
$scope module w_stage $end
$var wire 1 H clk $end
$var wire 1 #" en $end
$var wire 1 M" reg_we $end
$var wire 5 v# reg_write_addr [4:0] $end
$var wire 32 w# reg_write_data [31:0] $end
$var wire 5 x# rs_addr [4:0] $end
$var wire 32 y# rs_data [31:0] $end
$var wire 5 z# rt_addr [4:0] $end
$var wire 32 {# rt_data [31:0] $end
$upscope $end
$upscope $end
$scope module mips_local_store $end
$var wire 12 |# addr [11:0] $end
$var wire 1 H clk $end
$var wire 32 }# din [31:0] $end
$var wire 4 ~# we [3:0] $end
$var reg 32 !$ dout [31:0] $end
$scope begin column[0] $end
$upscope $end
$scope begin column[1] $end
$upscope $end
$scope begin column[2] $end
$upscope $end
$scope begin column[3] $end
$upscope $end
$upscope $end
$upscope $end
$upscope $end
$enddefinitions $end
#0
$dumpvars
bx !$
b0 ~#
b0 }#
b0 |#
bx {#
bx z#
bx y#
bx x#
b0 w#
b0 v#
0u#
b0 t#
b0 s#
b0 r#
b0 q#
0p#
b0 o#
b0 n#
0m#
0l#
0k#
0j#
0i#
b0 h#
b0 g#
b0 f#
b0 e#
0d#
0c#
0b#
0a#
0`#
b0 _#
b0 ^#
b0 ]#
b0 \#
b0 [#
0Z#
0Y#
0X#
0W#
0V#
b0 U#
bx T#
0S#
0R#
0Q#
0P#
0O#
0N#
b0 M#
bx L#
0K#
0J#
b0 I#
b1101 H#
b0 G#
bx F#
b0 E#
bx D#
b1101 C#
xB#
b0xxxxx A#
bx @#
bx ?#
bx >#
bx =#
0<#
bx ;#
bx :#
bx 9#
b0 8#
b0 7#
b0 6#
bx 5#
x4#
x3#
bx 2#
b0 1#
bx 0#
bx /#
bx .#
x-#
x,#
x+#
x*#
x)#
x(#
x'#
x&#
x%#
x$#
x##
x"#
x!#
x~"
x}"
x|"
x{"
xz"
xy"
xx"
xw"
bx v"
bx u"
bx0000000000000000 t"
bx s"
b0xxxxxxxxxxxxxxxx r"
bx q"
bx p"
0o"
bx n"
b0 m"
bx l"
bx k"
0j"
b0 i"
bx h"
b0 g"
b0 f"
b0 e"
bx d"
bx c"
b100 b"
b0 a"
b0 `"
bx _"
b0xxxxxxxxxxxxxxxxxxxxxxxxxx00 ^"
bx ]"
bx \"
0["
0Z"
bx Y"
bx X"
0W"
0V"
bx U"
bx T"
b0 S"
b0 R"
b0 Q"
b0 P"
bx O"
b0 N"
0M"
0L"
xK"
0J"
0I"
b0 H"
b0 G"
b0 F"
xE"
0D"
xC"
0B"
b0 A"
bx @"
b0 ?"
b0 >"
x="
0<"
0;"
x:"
09"
08"
x7"
06"
bx 5"
b0xxxxxxxx 4"
bx 3"
bx 2"
01"
x0"
0/"
b0 ."
x-"
0,"
x+"
bx *"
x)"
b0 ("
b0 '"
bx &"
bx %"
1$"
1#"
bx ""
b0 !"
b0 ~
0}
b1101 |
b0 {
1z
bx y
b0 x
bx w
b0 v
bx u
bx t
xs
xr
bx q
b0 p
b0 o
b0 n
b0 m
b0 l
b0 k
b0 j
bx i
bx h
0g
bx f
bx e
bx d
b0 c
b0 b
b0 a
0`
bx _
b0 ^
bx ]
b0 \
b0 [
bx Z
b0xxxxxxxxxxxxxxxxxxxx10 Y
0X
0W
1V
0U
0T
bx S
b0 R
b0 Q
b0 P
bx O
0N
b0 M
b0 L
bx K
0J
b0 I
0H
b0 G
b1 F
b0 E
b0xxxxxxxxxxxxxxxxxxxx10 D
b11101000110010101110011011101000111001100101111011001100111011101100100010111110110100101100100011100100111010001011111011011010110010101101101001011110111010001100101011100110111010000101110011100100110010101110011011101010110110001110100 C
0B
b1 A
b1 @
b0 ?
b0 >
bx =
bx <
b0 ;
b100000000000000000 :
b1111101000 9
b111010001100101011100110111010001110011001011110110011001110111011001000101111101101001011001000111001001110100010111110110110101100101011011010010111101100010011101010110100101101100011001000010111101100001011100000111000000101110011010000110010101111000 8
bx 7
bx 6
bx 5
bx 4
b11101000110010101110011011101000111001100101111011001100111011101100100010111110110100101100100011100100111010001011111011011010110010101101101001011110111001101110100011100100110010101100001011011010111011101100001011101100110010100101110011101100110001101100100 3
b1 2
b0 1
00
b0 /
b0 .
b0 -
b0 ,
b0 +
b0 *
bx )
bx (
bx '
b0 &
b0 %
bx $
b0 #
b0 "
bx !
$end
#5000
0,#
b0 A#
b100 c"
b100 d"
b0 w
b0 k"
b0 D#
b10000100000000000001000 ^"
0-#
b0 :#
b0 *"
b0 .#
0+"
0"#
b100001000000000000010 _"
b10000000000000000100 \"
b10000000000000100000000000000000 y
b10000000000000100000000000000000 l"
b10000000000000100000000000000000 F#
b0 U"
b0 ;#
b0 y#
0z"
1K"
0y"
0{"
0|"
0~"
0}"
b10000 O"
b10000 5#
b10000 T#
0)"
0&#
0*#
0'#
0+#
0(#
0)#
b1100 C#
b1100 |
b1100 H#
b10000000000000100000000000000000 q"
b10000000000000100000000000000000 ""
b10000000000000100000000000000000 ]"
b10000000000000100000000000000000 n"
0x"
0!#
0$#
0-"
1B#
03#
04#
1%#
0w"
0="
07"
00"
1:"
b1111 0#
b0 T"
b0 9#
b0 x#
b10000 X"
b10000 =#
b10000 z#
b10000 2#
b0 @#
0C"
0E"
b10 p"
b11111111111111111000000000000010 s"
b1000000000000010 r"
b10000000000000100000000000000000 t"
b1000000000000010 u"
b111100000100001000000000000010 &"
b111100000100001000000000000010 v"
b111100000100001000000000000010 K
b111100000100001000000000000010 $
b111100000100001000000000000010 Z
b111100000100001000000000000010 %"
b111100000100001000000000000010 h"
bx S
bx !$
b0 u
b0 )
b0 i
b0 t
b0 (
b0 h
0s
0r
b0 q
10
1H
#10000
00
0H
#15000
bx !$
bx S
10
1H
#20000
1V"
00
0H
b0xxxxxxxxxxxxxxxxxxxx00 D
b0xxxxxxxxxxxxxxxxxxxx00 Y
1B
1g
#25000
0V
b1000 c"
b1000 d"
bx ,
bx m
bx +
bx Q
bx -
bx n
0Y#
1b#
1Z#
b1 G
1J"
bx l
bx >"
bx }#
1d#
b10000000000000100000000000000000 f#
b10000000000000100000000000000000 ~
b10000000000000100000000000000000 m"
b10000000000000100000000000000000 g#
1W
b10000000000000100000000000000000 \
b10000000000000100000000000000000 ."
b10000000000000100000000000000000 e#
b1 %
b1 [
bx S
bx !$
1V#
1I"
b10000 U#
b10000 N"
b10000 6#
b10000 n#
1R#
19"
bx M#
bx ?"
b1100 I#
b1100 {
b1100 _#
b10000000000000100000000000000000 G#
b10000000000000100000000000000000 ^#
0z
b10000000000000100000000000000000 x
b10000000000000100000000000000000 ]#
b111100000100001000000000000010 i"
b111100000100001000000000000010 ("
b100 e"
b100 H"
b100 `"
b100 f"
b100 ^
b100 F"
10
1H
#30000
00
0H
b1111100111 1
b0xxxxxxxxxxxxxxxxxxxx01 D
b0xxxxxxxxxxxxxxxxxxxx01 Y
#35000
b1 y
b1 l"
b1 F#
b10001000000000000000100 ^"
b10001 O"
b10001 5#
b10001 T#
b11 C#
b11 |
b11 H#
b1 q"
b1 ""
b1 ]"
b1 n"
b100010000000000000001 _"
b1100 c"
b1100 d"
13#
0%#
1w"
b1101 0#
b10001 X"
b10001 =#
b10001 z#
b0 2#
b1 p"
b1 s"
b1 r"
b10000000000000000 t"
b1 u"
b10 G
b110100000100010000000000000001 &"
b110100000100010000000000000001 v"
b10 %
b10 [
b1 '"
b10000000000000100000000000000000 R"
b10000000000000100000000000000000 8#
b10000000000000100000000000000000 q#
bx 4"
bx !$
bx S
b110100000100010000000000000001 K
b110100000100010000000000000001 $
b110100000100010000000000000001 Z
b110100000100010000000000000001 %"
b110100000100010000000000000001 h"
b1000 e"
b1000 H"
b1000 `"
b1000 f"
b1000 ^
b1000 F"
b100 g"
b1100 \"
b1000 b"
b100 G"
b100 a"
b100 1#
b10000000000000100000000000000000 h#
b10000000000000100000000000000000 !"
1l#
1;"
b10000 o#
b10000 P"
b10000 7#
b10000 s#
1p#
1L"
10
1H
#40000
00
0H
b1111100110 1
#45000
b1111 y
b1111 l"
b1111 F#
b1111 q"
b1111 ""
b1111 ]"
b1111 n"
b1000000000000000111100 ^"
b1000 O"
b1000 5#
b1000 T#
b10000000000000001111 _"
1V
b10000 c"
b10000 d"
b1000 X"
b1000 =#
b1000 z#
b1111 p"
b1111 s"
b1111 r"
b11110000000000000000 t"
b1111 u"
0Z#
b11 G
b110100000010000000000000001111 &"
b110100000010000000000000001111 v"
0b#
0d#
b1 f#
b1 ~
b1 m"
b1 g#
0U
0W
b1 \
b1 ."
b1 e#
b10 '"
b11 %
b11 [
b110100000010000000000000001111 K
b110100000010000000000000001111 $
b110100000010000000000000001111 Z
b110100000010000000000000001111 %"
b110100000010000000000000001111 h"
bx S
bx !$
1u#
1M"
b10000 t#
b10000 Q"
b10000 v#
b10000000000000100000000000000000 r#
b10000000000000100000000000000000 S"
b10000000000000100000000000000000 w#
b10001 U#
b10001 N"
b10001 6#
b10001 n#
b11 I#
b11 {
b11 _#
b1 G#
b1 ^#
b1 x
b1 ]#
b110100000100010000000000000001 i"
b110100000100010000000000000001 ("
b1000 g"
b1001000 \"
b1100 b"
b1000 G"
b1000 a"
b1000 1#
b1100 e"
b1100 H"
b1100 `"
b1100 f"
b1100 ^
b1100 F"
10
1H
#50000
00
0H
b1111100101 1
#55000
1,#
1-#
03#
b0 q"
b0 ""
b0 ]"
b0 n"
b0 ^"
b0 y
b0 l"
b0 F#
b0 O"
b0 5#
b0 T#
b0 @"
b0 /#
b0 L#
b0 >#
1##
b0 Y"
b0 ?#
b0 {#
1&#
b1010 C#
b1010 |
b1010 H#
b0 _"
b10100 c"
b10100 d"
b11 "
b11 L
0B#
14#
0w"
b0 0#
b0 X"
b0 =#
b0 z#
b0 p"
b0 s"
b0 r"
b0 t"
b0 u"
b100 G
b11 |#
b11 j
b11 *
b11 k
b11 b
b11 &
b11 c
b0 &"
b0 v"
b100 %
b100 [
b11 '"
b1111 f#
b1111 ~
b1111 m"
b1111 g#
b1111 \
b1111 ."
b1111 e#
b1 R"
b1 8#
b1 q#
bx !$
bx S
b0 K
b0 $
b0 Z
b0 %"
b0 h"
b10000 e"
b10000 H"
b10000 `"
b10000 f"
b10000 ^
b10000 F"
b1100 g"
b10000 \"
b10000 b"
b1100 G"
b1100 a"
b1100 1#
b110100000010000000000000001111 i"
b110100000010000000000000001111 ("
b1111 G#
b1111 ^#
b1111 x
b1111 ]#
b1000 U#
b1000 N"
b1000 6#
b1000 n#
b1 h#
b1 !"
b10001 o#
b10001 P"
b10001 7#
b10001 s#
10
1H
#60000
00
0H
b1111100100 1
#65000
b0 "
b0 L
b11000 c"
b11000 d"
b0 ,
b0 m
b0 +
b0 Q
b0 -
b0 n
b0 |#
b0 j
b0 *
b0 k
b0 b
b0 &
b0 c
b101 G
b1111 R"
b1111 8#
b1111 q#
b0 l
b0 >"
b0 }#
b0 f#
b0 ~
b0 m"
b0 g#
b0 \
b0 ."
b0 e#
b100 '"
b101 %
b101 [
bx S
bx !$
b10001 t#
b10001 Q"
b10001 v#
b1 r#
b1 S"
b1 w#
b1000 o#
b1000 P"
b1000 7#
b1000 s#
b1111 h#
b1111 !"
b0 U#
b0 N"
b0 6#
b0 n#
b0 M#
b0 ?"
b1010 I#
b1010 {
b1010 _#
b0 G#
b0 ^#
1z
b0 x
b0 ]#
b0 i"
b0 ("
b10000 g"
b10100 \"
b10100 b"
b10000 G"
b10000 a"
b10000 1#
b10100 e"
b10100 H"
b10100 `"
b10100 f"
b10100 ^
b10100 F"
10
1H
#70000
00
0H
b1111100011 1
#75000
b11100 c"
b11100 d"
b110 G
b110 %
b110 [
b101 '"
b0 R"
b0 8#
b0 q#
bx !$
bx S
b11000 e"
b11000 H"
b11000 `"
b11000 f"
b11000 ^
b11000 F"
b10100 g"
b11000 \"
b11000 b"
b10100 G"
b10100 a"
b10100 1#
b0 h#
b0 !"
b0 o#
b0 P"
b0 7#
b0 s#
b1111 r#
b1111 S"
b1111 w#
b1000 t#
b1000 Q"
b1000 v#
10
1H
#80000
00
0H
b1111100010 1
#85000
b100000 c"
b100000 d"
b111 G
b110 '"
b111 %
b111 [
bx S
bx !$
b0 t#
b0 Q"
b0 v#
b0 r#
b0 S"
b0 w#
b11000 g"
b11100 \"
b11100 b"
b11000 G"
b11000 a"
b11000 1#
b11100 e"
b11100 H"
b11100 `"
b11100 f"
b11100 ^
b11100 F"
10
1H
#90000
00
0H
b1111100001 1
#95000
b100100 c"
b100100 d"
b1000 G
b1000 %
b1000 [
b111 '"
bx !$
bx S
b100000 e"
b100000 H"
b100000 `"
b100000 f"
b100000 ^
b100000 F"
b11100 g"
b100000 \"
b100000 b"
b11100 G"
b11100 a"
b11100 1#
10
1H
#100000
00
0H
b1111100000 1
