lab3/sim/tests/imageMIPS/streamwave.vcd
$date
	Tue Mar 10 21:07:50 2015
$end
$version
	Icarus Verilog
$end
$timescale
	1ps
$end
$scope module userlogic_test $end
$var wire 32 ! data_out [31:0] $end
$var wire 64 " intermediate_read_data [63:0] $end
$var wire 32 # ul_instr [31:0] $end
$var wire 32 $ ul_instr_addr [31:0] $end
$var wire 64 % ul_read_addr [63:0] $end
$var wire 32 & ul_read_data [31:0] $end
$var wire 32 ' ul_status [31:0] $end
$var wire 32 ( ul_test [31:0] $end
$var wire 64 ) ul_write_addr [63:0] $end
$var wire 32 * ul_write_data [31:0] $end
$var wire 4 + ul_write_en [3:0] $end
$var reg 1 , clk $end
$var reg 32 - cycle_count [32:1] $end
$var integer 32 . dump_vars [31:0] $end
$var reg 8192 / dump_vars_filename [8192:1] $end
$var integer 32 0 i [31:0] $end
$var reg 10 1 image_n_columns [9:0] $end
$var reg 10 2 image_n_rows [9:0] $end
$var reg 8192 3 input_buffer_filename [8192:1] $end
$var reg 8192 4 instr_mem_filename [8192:1] $end
$var reg 32 5 num_cycles [32:1] $end
$var reg 33 6 out_end_addr [32:0] $end
$var reg 33 7 out_start_addr [32:0] $end
$var integer 32 8 outfile [31:0] $end
$var reg 8192 9 output_buffer_filename [8192:1] $end
$var reg 15 : read_addr [14:0] $end
$var integer 32 ; read_input_buffer [31:0] $end
$var integer 32 < read_instr_mem [31:0] $end
$var integer 32 = result [31:0] $end
$var reg 1 > rst_n $end
$var reg 8192 ? test_result_filename [8192:1] $end
$var reg 32 @ ul_command [31:0] $end
$var integer 32 A write_output_buffer [31:0] $end
$var integer 32 B write_test_result [31:0] $end
$scope module instr_mem $end
$var wire 16 C addr [15:0] $end
$var wire 1 D clk $end
$var wire 32 E din [31:0] $end
$var wire 1 F we $end
$var reg 32 G dout [31:0] $end
$upscope $end
$scope module ul $end
$var wire 1 D clk $end
$var wire 32 H command [31:0] $end
$var wire 32 I instr [31:0] $end
$var wire 32 J instr_addr [31:0] $end
$var wire 64 K read_addr [63:0] $end
$var wire 32 L read_data [31:0] $end
$var wire 1 M rst_n $end
$var wire 1 N sobel_go $end
$var wire 10 O sobel_image_n_cols [9:0] $end
$var wire 10 P sobel_image_n_rows [9:0] $end
$var wire 1 Q sobel_reset $end
$var wire 32 R status [31:0] $end
$var wire 32 S test [31:0] $end
$var wire 64 T write_addr [63:0] $end
$var wire 32 U write_data [31:0] $end
$var wire 4 V write_en [3:0] $end
$scope module go_r $end
$var wire 1 D clk $end
$var wire 1 W d $end
$var wire 1 Q r $end
$var reg 1 X q $end
$upscope $end
$scope module sobel $end
$var wire 1 D clk $end
$var wire 1 N go $end
$var wire 32 Y mem2stop_read_data [31:0] $end
$var wire 10 Z pipe2stop_image_n_cols [9:0] $end
$var wire 10 [ pipe2stop_image_n_rows [9:0] $end
$var wire 1 Q reset $end
$var wire 16 \ sacc2swt_write_data [15:0] $end
$var wire 2 ] sctl2srow_row_op [1:0] $end
$var wire 32 ^ sctl2srt_read_addr [31:0] $end
$var wire 32 _ sctl2swt_write_addr [31:0] $end
$var wire 2 ` sctl2swt_write_en [1:0] $end
$var wire 32 a srow2sacc_row1_data [31:0] $end
$var wire 32 b srow2sacc_row2_data [31:0] $end
$var wire 32 c srow2sacc_row3_data [31:0] $end
$var wire 32 d srt2srow_read_data [31:0] $end
$var wire 64 e stop2mem_read_addr [63:0] $end
$var wire 64 f stop2mem_write_addr [63:0] $end
$var wire 32 g stop2mem_write_data [31:0] $end
$var wire 4 h stop2mem_write_en [3:0] $end
$var wire 32 i stop2pipe_status [31:0] $end
$scope module read_transform $end
$var wire 1 D clk $end
$var wire 32 j mem2srt_read_data [31:0] $end
$var wire 1 k read_transform $end
$var wire 1 Q reset $end
$var wire 32 l sctl2srt_read_addr [31:0] $end
$var wire 64 m srt2mem_read_addr [63:0] $end
$var wire 32 n srt2srow_read_data [31:0] $end
$var wire 32 o transformed_read_data [31:0] $end
$scope module read_transform_r $end
$var wire 1 D clk $end
$var wire 1 p d $end
$var wire 1 Q r $end
$var reg 1 q q $end
$upscope $end
$scope begin unpack_read_data[0] $end
$upscope $end
$scope begin unpack_read_data[1] $end
$upscope $end
$scope begin flip_endian_read_data[0] $end
$upscope $end
$scope begin flip_endian_read_data[1] $end
$upscope $end
$scope begin flip_endian_read_data[2] $end
$upscope $end
$scope begin flip_endian_read_data[3] $end
$upscope $end
$scope begin transform_read_address[0] $end
$upscope $end
$scope begin transform_read_address[1] $end
$upscope $end
$upscope $end
$scope module write_transform $end
$var wire 16 r sacc2swt_write_data [15:0] $end
$var wire 32 s sctl2swt_write_addr [31:0] $end
$var wire 2 t sctl2swt_write_en [1:0] $end
$var wire 64 u swt2mem_write_addr [63:0] $end
$var wire 32 v swt2mem_write_data [31:0] $end
$var wire 4 w swt2mem_write_en [3:0] $end
$var wire 32 x transformed_write_data [31:0] $end
$var wire 1 y write_transform $end
$scope begin unpack_write_data[0] $end
$upscope $end
$scope begin unpack_write_data[1] $end
$upscope $end
$scope begin write_transform_internal[0] $end
$upscope $end
$scope begin write_transform_internal[1] $end
$upscope $end
$scope begin write_transform_address_output[0] $end
$upscope $end
$scope begin write_transform_address_output[1] $end
$upscope $end
$scope begin write_transform_en_output[0] $end
$upscope $end
$scope begin write_transform_en_output[1] $end
$upscope $end
$scope begin write_transform_en_output[2] $end
$upscope $end
$scope begin write_transform_en_output[3] $end
$upscope $end
$upscope $end
$scope module control $end
$var wire 32 z buf_read_offset [31:0] $end
$var wire 32 { buf_write_offset [31:0] $end
$var wire 10 | buf_write_row_incr [9:0] $end
$var wire 1 D clk $end
$var wire 10 } col_strip [9:0] $end
$var wire 10 ~ control_n_cols [9:0] $end
$var wire 10 !" control_n_rows [9:0] $end
$var wire 1 N go $end
$var wire 10 "" max_col_strip [9:0] $end
$var wire 10 #" next_col_strip [9:0] $end
$var wire 2 $" pixel_write_en [1:0] $end
$var wire 1 Q reset $end
$var wire 10 %" row_counter [9:0] $end
$var wire 2 &" sctl2srow_row_op [1:0] $end
$var wire 32 '" sctl2srt_read_addr [31:0] $end
$var wire 32 (" sctl2stop_status [31:0] $end
$var wire 32 )" sctl2swt_write_addr [31:0] $end
$var wire 2 *" sctl2swt_write_en [1:0] $end
$var wire 4 +" state [3:0] $end
$var wire 10 ," stop2sctl_image_n_cols [9:0] $end
$var wire 10 -" stop2sctl_image_n_rows [9:0] $end
$var reg 32 ." buf_read_offset_next [31:0] $end
$var reg 1 /" buf_write_en $end
$var reg 32 0" buf_write_offset_next [31:0] $end
$var reg 10 1" col_strip_next [9:0] $end
$var reg 10 2" row_counter_next [9:0] $end
$var reg 2 3" row_op [1:0] $end
$var reg 4 4" state_next [3:0] $end
$scope module state_r $end
$var wire 1 D clk $end
$var wire 4 5" d [3:0] $end
$var wire 1 Q r $end
$var reg 4 6" q [3:0] $end
$upscope $end
$scope module control_n_rows_r $end
$var wire 1 D clk $end
$var wire 10 7" d [9:0] $end
$var wire 1 8" en $end
$var wire 1 Q r $end
$var reg 10 9" q [9:0] $end
$upscope $end
$scope module control_n_cols_r $end
$var wire 1 D clk $end
$var wire 10 :" d [9:0] $end
$var wire 1 ;" en $end
$var wire 1 Q r $end
$var reg 10 <" q [9:0] $end
$upscope $end
$scope module row_counter_r $end
$var wire 1 D clk $end
$var wire 10 =" d [9:0] $end
$var wire 1 N en $end
$var wire 1 Q r $end
$var reg 10 >" q [9:0] $end
$upscope $end
$scope module col_strip_r $end
$var wire 1 D clk $end
$var wire 10 ?" d [9:0] $end
$var wire 1 N en $end
$var wire 1 Q r $end
$var reg 10 @" q [9:0] $end
$upscope $end
$scope module buf_read_offset_r $end
$var wire 1 D clk $end
$var wire 32 A" d [31:0] $end
$var wire 1 N en $end
$var wire 1 Q r $end
$var reg 32 B" q [31:0] $end
$upscope $end
$scope module buf_write_offset_r $end
$var wire 1 D clk $end
$var wire 32 C" d [31:0] $end
$var wire 1 N en $end
$var wire 1 Q r $end
$var reg 32 D" q [31:0] $end
$upscope $end
$scope begin sobel_write_en[0] $end
$upscope $end
$scope begin sobel_write_en[1] $end
$upscope $end
$upscope $end
$scope module row_reg $end
$var wire 1 D clk $end
$var wire 1 N go $end
$var wire 1 Q reset $end
$var wire 32 E" row1 [31:0] $end
$var wire 32 F" row2 [31:0] $end
$var wire 32 G" row3 [31:0] $end
$var wire 2 H" sctl2srow_row_op [1:0] $end
$var wire 32 I" srow2sacc_row1_data [31:0] $end
$var wire 32 J" srow2sacc_row2_data [31:0] $end
$var wire 32 K" srow2sacc_row3_data [31:0] $end
$var wire 32 L" srt2srow_read_data [31:0] $end
$var reg 32 M" row1_next [31:0] $end
$var reg 32 N" row2_next [31:0] $end
$var reg 32 O" row3_next [31:0] $end
$scope module row1_r $end
$var wire 1 D clk $end
$var wire 32 P" d [31:0] $end
$var wire 1 N en $end
$var wire 1 Q r $end
$var reg 32 Q" q [31:0] $end
$upscope $end
$scope module row2_r $end
$var wire 1 D clk $end
$var wire 32 R" d [31:0] $end
$var wire 1 N en $end
$var wire 1 Q r $end
$var reg 32 S" q [31:0] $end
$upscope $end
$scope module row3_r $end
$var wire 1 D clk $end
$var wire 32 T" d [31:0] $end
$var wire 1 N en $end
$var wire 1 Q r $end
$var reg 32 U" q [31:0] $end
$upscope $end
$upscope $end
$scope module accelerator $end
$var wire 32 V" row1 [31:0] $end
$var wire 32 W" row2 [31:0] $end
$var wire 32 X" row3 [31:0] $end
$var wire 16 Y" sacc2swt_write_data [15:0] $end
$var wire 32 Z" srow2sacc_row1_data [31:0] $end
$var wire 32 [" srow2sacc_row2_data [31:0] $end
$var wire 32 \" srow2sacc_row3_data [31:0] $end
$var reg 16 ]" sobel_out [15:0] $end
$scope begin convolve[0] $end
$upscope $end
$scope begin convolve[1] $end
$upscope $end
$upscope $end
$upscope $end
$upscope $end
$scope begin input_buffer_gen[0] $end
$var wire 15 ^" adjusted_ul_read_addr [14:0] $end
$scope module input_buffer $end
$var wire 15 _" addr [14:0] $end
$var wire 1 D clk $end
$var wire 32 `" din [31:0] $end
$var wire 1 a" we $end
$var reg 32 b" dout [31:0] $end
$upscope $end
$upscope $end
$scope begin input_buffer_gen[1] $end
$var wire 15 c" adjusted_ul_read_addr [14:0] $end
$scope module input_buffer $end
$var wire 15 d" addr [14:0] $end
$var wire 1 D clk $end
$var wire 32 e" din [31:0] $end
$var wire 1 f" we $end
$var reg 32 g" dout [31:0] $end
$upscope $end
$upscope $end
$scope begin output_buffer_gen[0] $end
$scope module output_buffer $end
$var wire 15 h" addr [14:0] $end
$var wire 1 D clk $end
$var wire 16 i" din [15:0] $end
$var wire 2 j" we [1:0] $end
$var reg 16 k" dout [15:0] $end
$scope begin column[0] $end
$upscope $end
$scope begin column[1] $end
$upscope $end
$upscope $end
$scope begin genblk3 $end
$upscope $end
$upscope $end
$scope begin output_buffer_gen[1] $end
$scope module output_buffer $end
$var wire 15 l" addr [14:0] $end
$var wire 1 D clk $end
$var wire 16 m" din [15:0] $end
$var wire 2 n" we [1:0] $end
$var reg 16 o" dout [15:0] $end
$scope begin column[0] $end
$upscope $end
$scope begin column[1] $end
$upscope $end
$upscope $end
$scope begin genblk3 $end
$upscope $end
$upscope $end
$scope begin data_out_gen[0] $end
$scope begin genblk6 $end
$upscope $end
$upscope $end
$scope begin data_out_gen[1] $end
$scope begin genblk6 $end
$upscope $end
$upscope $end
$upscope $end
$enddefinitions $end
#0
$dumpvars
bx o"
bx n"
bx m"
bx l"
bx k"
bx j"
bx i"
bx h"
bx g"
0f"
b0 e"
bx d"
bx c"
bx b"
0a"
b0 `"
bx _"
bx ^"
bx ]"
bx \"
bx ["
bx Z"
bx Y"
bx X"
bx W"
bx V"
bx U"
b0 T"
bx S"
b0 R"
bx Q"
b0 P"
b0 O"
b0 N"
b0 M"
bx L"
bx K"
bx J"
bx I"
bx H"
bx G"
bx F"
bx E"
bx D"
bx C"
bx B"
bx A"
bx @"
bx ?"
bx >"
bx ="
bx <"
x;"
b10 :"
bx 9"
x8"
b10 7"
bx 6"
bx 5"
bx 4"
bx 3"
bx 2"
bx 1"
bx 0"
x/"
bx ."
b10 -"
b10 ,"
bx +"
b0 *"
bx )"
b0xxxxxx ("
bx '"
bx &"
bx %"
b0 $"
b0 #"
b0 ""
bx !"
bx ~
bx }
b0 |
bx {
bx z
xy
bx x
bx w
bx v
bx u
b0 t
bx s
bx r
xq
xp
bx o
bx n
bx m
bx l
xk
bx j
b0xxxxxx i
bx h
bx g
bx f
bx e
bx d
bx c
bx b
bx a
b0 `
bx _
bx ^
bx ]
bx \
b10 [
b10 Z
bx Y
xX
0W
bx V
bx U
bx T
b0 S
b0xxxxxx R
1Q
b10 P
b10 O
xN
0M
bx L
bx K
b0 J
bx I
b0 H
bx G
0F
b0 E
0D
b0 C
b0 B
b1 A
b0 @
bx ?
0>
b1 =
b0 <
b1 ;
b0 :
b111010001100101011100110111010001110011001011110110100101101101011000010110011101100101010011010100100101010000010100110010111101101111011000100111010101100110010111110111010001100101011100110111010000101110011010000110010101111000 9
bx 8
b0 7
b110010101000000 6
b11110100001001000000 5
bx 4
b11101000110010101110011011101000111001100101111011010010110110101100001011001110110010101001101010010010101000001010011001011110110100101100010011101010110011000101110011010000110010101111000 3
b10100010 2
b1010000000 1
bx 0
b11101000110010101110011011101000111001100101111011010010110110101100001011001110110010101001101010010010101000001010011001011110111001101110100011100100110010101100001011011010111011101100001011101100110010100101110011101100110001101100100 /
b1 .
b0 -
0,
bx +
bx *
bx )
b0 (
b0xxxxxx '
bx &
bx %
b0 $
bx #
bx "
bx !
$end
#5000
b0 i"
b0 h"
b0 n"
b0 m"
b0 l"
b0 j"
b0 *
b0 U
b0 g
b0 v
b0 x
b0 c"
b0 d"
b0 ^"
b0 _"
b0 +
b0 V
b0 h
b0 w
b0 )
b0 T
b0 f
b0 u
b0 %
b0 K
b0 e
b0 m
b0 ."
b0 A"
b0 4"
b0 5"
0/"
b0 0"
b0 C"
b0 3"
b0 ]
b0 &"
b0 H"
b0 2"
b0 ="
b0 1"
b0 ?"
0p
0y
b0 ]"
b0 \
b0 r
b0 Y"
bx k"
bx o"
0X
0N
0q
0k
b0 6"
1;"
18"
b0 '
b0 R
b0 i
b0 ("
b0 +"
b0 9"
b0 !"
b0 <"
b0 ~
b0 >"
b0 %"
b0 @"
b0 }
b0 B"
b0 z
b0 ^
b0 l
b0 '"
b0 D"
b0 {
b0 _
b0 s
b0 )"
b0 Q"
b0 E"
b0 V"
b0 a
b0 I"
b0 Z"
b0 S"
b0 F"
b0 W"
b0 b
b0 J"
b0 ["
b0 U"
b0 G"
b0 X"
b0 c
b0 K"
b0 \"
1,
1D
#10000
0,
0D
#15000
b0 d
b0 n
b0 L"
b0 o
b0 &
b0 L
b0 Y
b0 j
bx o"
bx k"
b0 g"
b0 b"
b0 "
1,
1D
#20000
0Q
0,
0D
1>
1M
#25000
bx k"
bx o"
b10 9"
b10 !"
b10 <"
b10 ~
1,
1D
#30000
b10100100 P
b10100100 [
b10100100 -"
b10100100 7"
b1010000010 O
b1010000010 Z
b1010000010 ,"
b1010000010 :"
1W
0,
0D
b11110100001000111111 -
b1010000000001010001001 @
b1010000000001010001001 H
#35000
b1 4"
b1 5"
b1010000010 <"
b1010000010 ~
b10100100 9"
b10100100 !"
1X
1N
bx o"
bx k"
1,
1D
#40000
0,
0D
b11110100001000111110 -
#45000
b1111 4"
b1111 5"
bx k"
bx o"
b1 6"
0;"
08"
b100 '
b100 R
b100 i
b100 ("
b1 +"
1,
1D
#50000
0,
0D
b11110100001000111101 -
#55000
b1111 6"
b111110 '
b111110 R
b111110 i
b111110 ("
b1111 +"
bx o"
bx k"
1,
1D
#60000
b10 P
b10 [
b10 -"
b10 7"
b10 O
b10 Z
b10 ,"
b10 :"
0W
0,
0D
b0 0
b10000000000000000000000000000011 8
b0 @
b0 H
#65000
bx k"
bx o"
0X
0N
1,
1D
#70000
b1 h"
b1 l"
0,
0D
b1 :
b1 0
#75000
bx o"
bx k"
1,
1D
#80000
b10 h"
b10 l"
0,
0D
b10 :
b10 0
#85000
bx k"
bx o"
1,
1D
#90000
b11 h"
b11 l"
0,
0D
b11 :
b11 0
#95000
bx o"
bx k"
1,
1D
#100000
b100 h"
b100 l"
0,
0D
b100 :
b100 0
#105000
bx k"
bx o"
1,
1D
#110000
b101 h"
b101 l"
0,
0D
b101 :
b101 0
#115000
bx o"
bx k"
1,
1D
#120000
b110 h"
b110 l"
0,
0D
b110 :
b110 0
#125000
bx k"
bx o"
1,
1D
#130000
b111 h"
b111 l"
0,
0D
b111 :
b111 0
#135000
bx o"
bx k"
1,
1D
#140000
b1000 h"
b1000 l"
0,
0D
b1000 :
b1000 0
#145000
bx k"
bx o"
1,
1D
#150000
b1001 h"
b1001 l"
0,
0D
b1001 :
b1001 0
#155000
bx o"
bx k"
1,
1D
#160000
b1010 h"
b1010 l"
0,
0D
b1010 :
b1010 0
#165000
bx k"
bx o"
1,
1D
#170000
b1011 h"
b1011 l"
0,
0D
b1011 :
b1011 0
#175000
bx o"
bx k"
1,
1D
#180000
b1100 h"
b1100 l"
0,
0D
b1100 :
b1100 0
#185000
bx k"
bx o"
1,
1D
#190000
b1101 h"
b1101 l"
0,
0D
b1101 :
b1101 0
#195000
bx o"
bx k"
1,
1D
#200000
b1110 h"
b1110 l"
0,
0D
b1110 :
b1110 0
#205000
bx k"
bx o"
1,
1D
#210000
b1111 h"
b1111 l"
0,
0D
b1111 :
b1111 0
#215000
bx o"
bx k"
1,
1D
#220000
b10000 h"
b10000 l"
0,
0D
b10000 :
b10000 0
#225000
bx k"
bx o"
1,
1D
#230000
b10001 h"
b10001 l"
0,
0D
b10001 :
b10001 0
#235000
bx o"
bx k"
1,
1D
#240000
b10010 h"
b10010 l"
0,
0D
b10010 :
b10010 0
#245000
bx k"
bx o"
1,
1D
#250000
b10011 h"
b10011 l"
0,
0D
b10011 :
b10011 0
#255000
bx o"
bx k"
1,
1D
#260000
b10100 h"
b10100 l"
0,
0D
b10100 :
b10100 0
#265000
bx k"
bx o"
1,
1D
#270000
b10101 h"
b10101 l"
0,
0D
b10101 :
b10101 0
#275000
bx o"
bx k"
1,
1D
#280000
b10110 h"
b10110 l"
0,
0D
b10110 :
b10110 0
#285000
bx k"
bx o"
1,
1D
#290000
b10111 h"
b10111 l"
0,
0D
b10111 :
b10111 0
#295000
bx o"
bx k"
1,
1D
#300000
b11000 h"
b11000 l"
0,
0D
b11000 :
b11000 0
#305000
bx k"
bx o"
1,
1D
#310000
b11001 h"
b11001 l"
0,
0D
b11001 :
b11001 0
#315000
bx o"
bx k"
1,
1D
#320000
b11010 h"
b11010 l"
0,
0D
b11010 :
b11010 0
#325000
bx k"
bx o"
1,
1D
#330000
b11011 h"
b11011 l"
0,
0D
b11011 :
b11011 0
#335000
bx o"
bx k"
1,
1D
#340000
b11100 h"
b11100 l"
0,
0D
b11100 :
b11100 0
#345000
bx k"
bx o"
1,
1D
#350000
b11101 h"
b11101 l"
0,
0D
b11101 :
b11101 0
#355000
bx o"
bx k"
1,
1D
#360000
b11110 h"
b11110 l"
0,
0D
b11110 :
b11110 0
#365000
bx k"
bx o"
1,
1D
#370000
b11111 h"
b11111 l"
0,
0D
b11111 :
b11111 0
#375000
bx o"
bx k"
1,
1D
#380000
b100000 h"
b100000 l"
0,
0D
b100000 :
b100000 0
#385000
bx k"
bx o"
1,
1D
#390000
b100001 h"
b100001 l"
0,
0D
b100001 :
b100001 0
#395000
bx o"
bx k"
1,
1D
#400000
b100010 h"
b100010 l"
0,
0D
b100010 :
b100010 0
#405000
bx k"
bx o"
1,
1D
#410000
b100011 h"
b100011 l"
0,
0D
b100011 :
b100011 0
#415000
bx o"
bx k"
1,
1D
#420000
b100100 h"
b100100 l"
0,
0D
b100100 :
b100100 0
#425000
bx k"
bx o"
1,
1D
#430000
b100101 h"
b100101 l"
0,
0D
b100101 :
b100101 0
#435000
bx o"
bx k"
1,
1D
#440000
b100110 h"
b100110 l"
0,
0D
b100110 :
b100110 0
#445000
bx k"
bx o"
1,
1D
#450000
b100111 h"
b100111 l"
0,
0D
b100111 :
b100111 0
#455000
bx o"
bx k"
1,
1D
#460000
b101000 h"
b101000 l"
0,
0D
b101000 :
b101000 0
#465000
bx k"
bx o"
1,
1D
#470000
b101001 h"
b101001 l"
0,
0D
b101001 :
b101001 0
#475000
bx o"
bx k"
1,
1D
#480000
b101010 h"
b101010 l"
0,
0D
b101010 :
b101010 0
#485000
bx k"
bx o"
1,
1D
#490000
b101011 h"
b101011 l"
0,
0D
b101011 :
b101011 0
#495000
bx o"
bx k"
1,
1D
#500000
b101100 h"
b101100 l"
0,
0D
b101100 :
b101100 0
#505000
bx k"
bx o"
1,
1D
#510000
b101101 h"
b101101 l"
0,
0D
b101101 :
b101101 0
#515000
bx o"
bx k"
1,
1D
#520000
b101110 h"
b101110 l"
0,
0D
b101110 :
b101110 0
#525000
bx k"
bx o"
1,
1D
#530000
b101111 h"
b101111 l"
0,
0D
b101111 :
b101111 0
#535000
bx o"
bx k"
1,
1D
#540000
b110000 h"
b110000 l"
0,
0D
b110000 :
b110000 0
#545000
bx k"
bx o"
1,
1D
#550000
b110001 h"
b110001 l"
0,
0D
b110001 :
b110001 0
#555000
bx o"
bx k"
1,
1D
#560000
b110010 h"
b110010 l"
0,
0D
b110010 :
b110010 0
#565000
bx k"
bx o"
1,
1D
#570000
b110011 h"
b110011 l"
0,
0D
b110011 :
b110011 0
#575000
bx o"
bx k"
1,
1D
#580000
b110100 h"
b110100 l"
0,
0D
b110100 :
b110100 0
#585000
bx k"
bx o"
1,
1D
#590000
b110101 h"
b110101 l"
0,
0D
b110101 :
b110101 0
#595000
bx o"
bx k"
1,
1D
#600000
b110110 h"
b110110 l"
0,
0D
b110110 :
b110110 0
#605000
bx k"
bx o"
1,
1D
#610000
b110111 h"
b110111 l"
0,
0D
b110111 :
b110111 0
#615000
bx o"
bx k"
1,
1D
#620000
b111000 h"
b111000 l"
0,
0D
b111000 :
b111000 0
#625000
bx k"
bx o"
1,
1D
#630000
b111001 h"
b111001 l"
0,
0D
b111001 :
b111001 0
#635000
bx o"
bx k"
1,
1D
#640000
b111010 h"
b111010 l"
0,
0D
b111010 :
b111010 0
#645000
bx k"
bx o"
1,
1D
#650000
b111011 h"
b111011 l"
0,
0D
b111011 :
b111011 0
#655000
bx o"
bx k"
1,
1D
#660000
b111100 h"
b111100 l"
0,
0D
b111100 :
b111100 0
#665000
bx k"
bx o"
1,
1D
#670000
b111101 h"
b111101 l"
0,
0D
b111101 :
b111101 0
#675000
bx o"
bx k"
1,
1D
#680000
b111110 h"
b111110 l"
0,
0D
b111110 :
b111110 0
#685000
bx k"
bx o"
1,
1D
#690000
b111111 h"
b111111 l"
0,
0D
b111111 :
b111111 0
#695000
bx o"
bx k"
1,
1D
#700000
b1000000 h"
b1000000 l"
0,
0D
b1000000 :
b1000000 0
#705000
bx k"
bx o"
1,
1D
#710000
b1000001 h"
b1000001 l"
0,
0D
b1000001 :
b1000001 0
#715000
bx o"
bx k"
1,
1D
#720000
b1000010 h"
b1000010 l"
0,
0D
b1000010 :
b1000010 0
#725000
bx k"
bx o"
1,
1D
#730000
b1000011 h"
b1000011 l"
0,
0D
b1000011 :
b1000011 0
#735000
bx o"
bx k"
1,
1D
#740000
b1000100 h"
b1000100 l"
0,
0D
b1000100 :
b1000100 0
#745000
bx k"
bx o"
1,
1D
#750000
b1000101 h"
b1000101 l"
0,
0D
b1000101 :
b1000101 0
#755000
bx o"
bx k"
1,
1D
#760000
b1000110 h"
b1000110 l"
0,
0D
b1000110 :
b1000110 0
#765000
bx k"
bx o"
1,
1D
#770000
b1000111 h"
b1000111 l"
0,
0D
b1000111 :
b1000111 0
#775000
bx o"
bx k"
1,
1D
#780000
b1001000 h"
b1001000 l"
0,
0D
b1001000 :
b1001000 0
#785000
bx k"
bx o"
1,
1D
#790000
b1001001 h"
b1001001 l"
0,
0D
b1001001 :
b1001001 0
#795000
bx o"
bx k"
1,
1D
#800000
b1001010 h"
b1001010 l"
0,
0D
b1001010 :
b1001010 0
#805000
bx k"
bx o"
1,
1D
#810000
b1001011 h"
b1001011 l"
0,
0D
b1001011 :
b1001011 0
#815000
bx o"
bx k"
1,
1D
#820000
b1001100 h"
b1001100 l"
0,
0D
b1001100 :
b1001100 0
#825000
bx k"
bx o"
1,
1D
#830000
b1001101 h"
b1001101 l"
0,
0D
b1001101 :
b1001101 0
#835000
bx o"
bx k"
1,
1D
#840000
b1001110 h"
b1001110 l"
0,
0D
b1001110 :
b1001110 0
#845000
bx k"
bx o"
1,
1D
#850000
b1001111 h"
b1001111 l"
0,
0D
b1001111 :
b1001111 0
#855000
bx o"
bx k"
1,
1D
#860000
b1010000 h"
b1010000 l"
0,
0D
b1010000 :
b1010000 0
#865000
bx k"
bx o"
1,
1D
#870000
b1010001 h"
b1010001 l"
0,
0D
b1010001 :
b1010001 0
#875000
bx o"
bx k"
1,
1D
#880000
b1010010 h"
b1010010 l"
0,
0D
b1010010 :
b1010010 0
#885000
bx k"
bx o"
1,
1D
#890000
b1010011 h"
b1010011 l"
0,
0D
b1010011 :
b1010011 0
#895000
bx o"
bx k"
1,
1D
#900000
b1010100 h"
b1010100 l"
0,
0D
b1010100 :
b1010100 0
#905000
bx k"
bx o"
1,
1D
#910000
b1010101 h"
b1010101 l"
0,
0D
b1010101 :
b1010101 0
#915000
bx o"
bx k"
1,
1D
#920000
b1010110 h"
b1010110 l"
0,
0D
b1010110 :
b1010110 0
#925000
bx k"
bx o"
1,
1D
#930000
b1010111 h"
b1010111 l"
0,
0D
b1010111 :
b1010111 0
#935000
bx o"
bx k"
1,
1D
#940000
b1011000 h"
b1011000 l"
0,
0D
b1011000 :
b1011000 0
#945000
bx k"
bx o"
1,
1D
#950000
b1011001 h"
b1011001 l"
0,
0D
b1011001 :
b1011001 0
#955000
bx o"
bx k"
1,
1D
#960000
b1011010 h"
b1011010 l"
0,
0D
b1011010 :
b1011010 0
#965000
bx k"
bx o"
1,
1D
#970000
b1011011 h"
b1011011 l"
0,
0D
b1011011 :
b1011011 0
#975000
bx o"
bx k"
1,
1D
#980000
b1011100 h"
b1011100 l"
0,
0D
b1011100 :
b1011100 0
#985000
bx k"
bx o"
1,
1D
#990000
b1011101 h"
b1011101 l"
0,
0D
b1011101 :
b1011101 0
#995000
bx o"
bx k"
1,
1D
#1000000
b1011110 h"
b1011110 l"
0,
0D
b1011110 :
b1011110 0
#1005000
bx k"
bx o"
1,
1D
#1010000
b1011111 h"
b1011111 l"
0,
0D
b1011111 :
b1011111 0
#1015000
bx o"
bx k"
1,
1D
#1020000
b1100000 h"
b1100000 l"
0,
0D
b1100000 :
b1100000 0
#1025000
bx k"
bx o"
1,
1D
#1030000
b1100001 h"
b1100001 l"
0,
0D
b1100001 :
b1100001 0
#1035000
bx o"
bx k"
1,
1D
#1040000
b1100010 h"
b1100010 l"
0,
0D
b1100010 :
b1100010 0
#1045000
bx k"
bx o"
1,
1D
#1050000
b1100011 h"
b1100011 l"
0,
0D
b1100011 :
b1100011 0
#1055000
bx o"
bx k"
1,
1D
#1060000
b1100100 h"
b1100100 l"
0,
0D
b1100100 :
b1100100 0
#1065000
bx k"
bx o"
1,
1D
#1070000
b1100101 h"
b1100101 l"
0,
0D
b1100101 :
b1100101 0
#1075000
bx o"
bx k"
1,
1D
#1080000
b1100110 h"
b1100110 l"
0,
0D
b1100110 :
b1100110 0
#1085000
bx k"
bx o"
1,
1D
#1090000
b1100111 h"
b1100111 l"
0,
0D
b1100111 :
b1100111 0
#1095000
bx o"
bx k"
1,
1D
#1100000
b1101000 h"
b1101000 l"
0,
0D
b1101000 :
b1101000 0
#1105000
bx k"
bx o"
1,
1D
#1110000
b1101001 h"
b1101001 l"
0,
0D
b1101001 :
b1101001 0
#1115000
bx o"
bx k"
1,
1D
#1120000
b1101010 h"
b1101010 l"
0,
0D
b1101010 :
b1101010 0
#1125000
bx k"
bx o"
1,
1D
#1130000
b1101011 h"
b1101011 l"
0,
0D
b1101011 :
b1101011 0
#1135000
bx o"
bx k"
1,
1D
#1140000
b1101100 h"
b1101100 l"
0,
0D
b1101100 :
b1101100 0
#1145000
bx k"
bx o"
1,
1D
#1150000
b1101101 h"
b1101101 l"
0,
0D
b1101101 :
b1101101 0
#1155000
bx o"
bx k"
1,
1D
#1160000
b1101110 h"
b1101110 l"
0,
0D
b1101110 :
b1101110 0
#1165000
bx k"
bx o"
1,
1D
#1170000
b1101111 h"
b1101111 l"
0,
0D
b1101111 :
b1101111 0
#1175000
bx o"
bx k"
1,
1D
#1180000
b1110000 h"
b1110000 l"
0,
0D
b1110000 :
b1110000 0
#1185000
bx k"
bx o"
1,
1D
#1190000
b1110001 h"
b1110001 l"
0,
0D
b1110001 :
b1110001 0
#1195000
bx o"
bx k"
1,
1D
#1200000
b1110010 h"
b1110010 l"
0,
0D
b1110010 :
b1110010 0
#1205000
bx k"
bx o"
1,
1D
#1210000
b1110011 h"
b1110011 l"
0,
0D
b1110011 :
b1110011 0
#1215000
bx o"
bx k"
1,
1D
#1220000
b1110100 h"
b1110100 l"
0,
0D
b1110100 :
b1110100 0
#1225000
bx k"
bx o"
1,
1D
#1230000
b1110101 h"
b1110101 l"
0,
0D
b1110101 :
b1110101 0
#1235000
bx o"
bx k"
1,
1D
#1240000
b1110110 h"
b1110110 l"
0,
0D
b1110110 :
b1110110 0
#1245000
bx k"
bx o"
1,
1D
#1250000
b1110111 h"
b1110111 l"
0,
0D
b1110111 :
b1110111 0
#1255000
bx o"
bx k"
1,
1D
#1260000
b1111000 h"
b1111000 l"
0,
0D
b1111000 :
b1111000 0
